{
  "label": "Elflines Online",
  "entries": {
    "Elflines Online": {
      "name": "Elflines Online",
      "description": "<p>A new in-box copy of the hit BDMMORPG Elflines Online.</p>"
    },
    "Rank 10 ELO Character": {
      "name": "Rank 10 ELO Character",
      "description": "<p>A power-leveled Rank 10 ELO character. (ELO Character must be created via the Macro and ranked up manually.)</p>"
    },
    "Rush Revolution": {
      "name": "Rush Revolution",
      "description": "<p>Braindance Headset. Required to play Elflines Online.</p>"
    }
  }
}