{
  "label": "Cyberimplants (Base) - NE PAS UTILISER",
  "entries": {
    "External (7 Option Slots)": {
      "name": "Externe (7 Emplacements d'extension)",
      "description": ""
    },
    "Fashionware (7 Option Slots)": {
      "name": "Cyberfashion (7 emplacements d'extension)",
      "description": ""
    },
    "Internal (7 Option Slots)": {
      "name": "Interne (7 Emplacements d'extension)",
      "description": ""
    }
  }
}