{
  "label": "Vêtements",
  "entries": {
    "Asia Pop Bottoms": {
      "name": "Bas de Pop asiatique",
      "description": "<p>Suivant les dernières tendances de la mode asiatique, Asia Pop ne manquera pas d'attirer l'attention avec ses couleurs vives et son style extravagant.</p>"
    },
    "Asia Pop Contact Lenses": {
      "name": "Lentilles de contact de Pop asiatique",
      "description": "<p>Suivant les dernières tendances de la mode asiatique, Asia Pop ne manquera pas d'attirer l'attention avec ses couleurs vives et son style extravagant.</p>"
    },
    "Asia Pop Footwear": {
      "name": "Chaussures de Pop asiatique",
      "description": "<p>Suivant les dernières tendances de la mode asiatique, Asia Pop ne manquera pas d'attirer l'attention avec ses couleurs vives et son style extravagant.</p>"
    },
    "Asia Pop Glasses": {
      "name": "Lunettes de Pop asiatique",
      "description": "<p>Suivant les dernières tendances de la mode asiatique, Asia Pop ne manquera pas d'attirer l'attention avec ses couleurs vives et son style extravagant.</p>"
    },
    "Asia Pop Hat": {
      "name": "Couvre-chef de Pop asiatique",
      "description": "<p>Suivant les dernières tendances de la mode asiatique, Asia Pop ne manquera pas d'attirer l'attention avec ses couleurs vives et son style extravagant.</p>"
    },
    "Asia Pop Jacket": {
      "name": "Veste de Pop asiatique",
      "description": "<p>Suivant les dernières tendances de la mode asiatique, Asia Pop ne manquera pas d'attirer l'attention avec ses couleurs vives et son style extravagant.</p>"
    },
    "Asia Pop Jewelry": {
      "name": "Bijoux de Pop asiatique",
      "description": "<p>Suivant les dernières tendances de la mode asiatique, Asia Pop ne manquera pas d'attirer l'attention avec ses couleurs vives et son style extravagant.</p>"
    },
    "Asia Pop Mirrorshades": {
      "name": "Verres mirroirs de Pop asiatique",
      "description": "<p>Suivant les dernières tendances de la mode asiatique, Asia Pop ne manquera pas d'attirer l'attention avec ses couleurs vives et son style extravagant.</p>"
    },
    "Asia Pop Top": {
      "name": "Haut de Pop asiatique",
      "description": "<p>Suivant les dernières tendances de la mode asiatique, Asia Pop ne manquera pas d'attirer l'attention avec ses couleurs vives et son style extravagant.</p>"
    },
    "Bag Lady Chic Bottoms": {
      "name": "Bas de Vagabond",
      "description": "<p>Suivez les dernières tendances de la mode des fonds de poubelles ! Des vêtements déchirés et usés, parfaits si vous voulez le look sans abri.</p>"
    },
    "Bag Lady Chic Contact Lenses": {
      "name": "Lentilles de contact de Vagabond",
      "description": "<p>Suivez les dernières tendances de la mode des fonds de poubelles ! Des vêtements déchirés et usés, parfaits si vous voulez le look sans abri.</p>"
    },
    "Bag Lady Chic Footwear": {
      "name": "Chaussures de Vagabond",
      "description": "<p>Suivez les dernières tendances de la mode des fonds de poubelles ! Des vêtements déchirés et usés, parfaits si vous voulez le look sans abri.</p>"
    },
    "Bag Lady Chic Glasses": {
      "name": "Lunettes de Vagabond",
      "description": "<p>Suivez les dernières tendances de la mode des fonds de poubelles ! Des vêtements déchirés et usés, parfaits si vous voulez le look sans abri.</p>"
    },
    "Bag Lady Chic Hat": {
      "name": "Couvre-chef de Vagabond",
      "description": "<p>Suivez les dernières tendances de la mode des fonds de poubelles ! Des vêtements déchirés et usés, parfaits si vous voulez le look sans abri.</p>"
    },
    "Bag Lady Chic Jacket": {
      "name": "Veste de Vagabond",
      "description": "<p>Suivez les dernières tendances de la mode des fonds de poubelles ! Des vêtements déchirés et usés, parfaits si vous voulez le look sans abri.</p>"
    },
    "Bag Lady Chic Jewelry": {
      "name": "Bijoux de Vagabond",
      "description": "<p>Suivez les dernières tendances de la mode des fonds de poubelles ! Des vêtements déchirés et usés, parfaits si vous voulez le look sans abri.</p>"
    },
    "Bag Lady Chic Mirrorshades": {
      "name": "Verres miroirs de Vagabond",
      "description": "<p>Suivez les dernières tendances de la mode des fonds de poubelles ! Des vêtements déchirés et usés, parfaits si vous voulez le look sans abri.</p>"
    },
    "Bag Lady Chic Top": {
      "name": "Haut de Vagabond",
      "description": "<p>Suivez les dernières tendances de la mode des fonds de poubelles ! Des vêtements déchirés et usés, parfaits si vous voulez le look sans abri.</p>"
    },
    "Bohemian Bottoms": {
      "name": "Bas de Bohème",
      "description": "<p>Retrouvez votre hippy intérieur des années 70 ! Montrez à tout le monde à quel point vous êtes un esprit libre avec ces vêtements.</p>"
    },
    "Bohemian Contact Lenses": {
      "name": "Lentilles de contact de Bohème",
      "description": "<p>Retrouvez votre hippy intérieur des années 70 ! Montrez à tout le monde à quel point vous êtes un esprit libre avec ces vêtements.</p>"
    },
    "Bohemian Footwear": {
      "name": "Chaussures de Bohème",
      "description": "<p>Retrouvez votre hippy intérieur des années 70 ! Montrez à tout le monde à quel point vous êtes un esprit libre avec ces vêtements.</p>"
    },
    "Bohemian Glasses": {
      "name": "Lunettes de Bohème",
      "description": "<p>Retrouvez votre hippy intérieur des années 70 ! Montrez à tout le monde à quel point vous êtes un esprit libre avec ces vêtements.</p>"
    },
    "Bohemian Hat": {
      "name": "Couvre-chef de Bohème",
      "description": "<p>Retrouvez votre hippy intérieur des années 70 ! Montrez à tout le monde à quel point vous êtes un esprit libre avec ces vêtements.</p>"
    },
    "Bohemian Jacket": {
      "name": "Veste de Bohème",
      "description": "<p>Retrouvez votre hippy intérieur des années 70 ! Montrez à tout le monde à quel point vous êtes un esprit libre avec ces vêtements.</p>"
    },
    "Bohemian Jewelry": {
      "name": "Bijoux de Bohème",
      "description": "<p>Retrouvez votre hippy intérieur des années 70 ! Montrez à tout le monde à quel point vous êtes un esprit libre avec ces vêtements.</p>"
    },
    "Bohemian Mirrorshades": {
      "name": "Verres miroirs de Bohème",
      "description": "<p>Retrouvez votre hippy intérieur des années 70 ! Montrez à tout le monde à quel point vous êtes un esprit libre avec ces vêtements.</p>"
    },
    "Bohemian Top": {
      "name": "Haut de Bohème",
      "description": "<p>Retrouvez votre hippy intérieur des années 70 ! Montrez à tout le monde à quel point vous êtes un esprit libre avec ces vêtements.</p>"
    },
    "Businesswear Bottoms": {
      "name": "Bas de Cadre sup",
      "description": "<p>Vos vêtements corporatifs typiques. Montrez à tout le monde que vous êtes ici et que c'est du sérieux.</p>"
    },
    "Businesswear Contact Lenses": {
      "name": "Lentilles de contact de Cadre sup",
      "description": "<p>Vos vêtements corporatifs typiques. Montrez à tout le monde que vous êtes ici et que c'est du sérieux.</p>"
    },
    "Businesswear Footwear": {
      "name": "Chaussures de Cadre sup",
      "description": "<p>Vos vêtements corporatifs typiques. Montrez à tout le monde que vous êtes ici et que c'est du sérieux.</p>"
    },
    "Businesswear Glasses": {
      "name": "Lunettes de Cadre sup",
      "description": "<p>Vos vêtements corporatifs typiques. Montrez à tout le monde que vous êtes ici et que c'est du sérieux.</p>"
    },
    "Businesswear Hat": {
      "name": "Couvre-chef de Cadre sup",
      "description": "<p>Vos vêtements corporatifs typiques. Montrez à tout le monde que vous êtes ici et que c'est du sérieux.</p>"
    },
    "Businesswear Jacket": {
      "name": "Veste de Cadre sup",
      "description": "<p>Vos vêtements corporatifs typiques. Montrez à tout le monde que vous êtes ici et que c'est du sérieux.</p>"
    },
    "Businesswear Jewelry": {
      "name": "Bijoux de Cadre sup",
      "description": "<p>Vos vêtements corporatifs typiques. Montrez à tout le monde que vous êtes ici et que c'est du sérieux.</p>"
    },
    "Businesswear Mirrorshades": {
      "name": "Verres miroirs de Cadre sup",
      "description": "<p>Vos vêtements corporatifs typiques. Montrez à tout le monde que vous êtes ici et que c'est du sérieux.</p>"
    },
    "Businesswear Top": {
      "name": "Haut de Cadre sup",
      "description": "<p>Vos vêtements corporatifs typiques. Montrez à tout le monde que vous êtes ici et que c'est du sérieux.</p>"
    },
    "Gang Colors Bottoms": {
      "name": "Bas avec Couleurs du gang",
      "description": "<p>Montrez votre allégeance avec les couleurs du Gang !</p>"
    },
    "Gang Colors Contact Lenses": {
      "name": "Lentilles de contact avec Couleurs du gang",
      "description": "<p>Montrez votre allégeance avec les couleurs du Gang !</p>"
    },
    "Gang Colors Footwear": {
      "name": "Chaussures avec Couleurs du gang",
      "description": "<p>Montrez votre allégeance avec les couleurs du Gang !</p>"
    },
    "Gang Colors Glasses": {
      "name": "Lunettes avec Couleurs du gang",
      "description": "<p>Montrez votre allégeance avec les couleurs du Gang !</p>"
    },
    "Gang Colors Hat": {
      "name": "Couvre-chef avec Couleurs du gang",
      "description": "<p>Montrez votre allégeance avec les couleurs du Gang !</p>"
    },
    "Gang Colors Jacket": {
      "name": "Veste avec Couleurs du gang",
      "description": "<p>Montrez votre allégeance avec les couleurs du Gang !</p>"
    },
    "Gang Colors Jewelry": {
      "name": "Bijoux avec Couleurs du gang",
      "description": "<p>Montrez votre allégeance avec les couleurs du Gang !</p>"
    },
    "Gang Colors Mirrorshades": {
      "name": "Verres mirroirs avec Couleurs du gang",
      "description": "<p>Montrez votre allégeance avec les couleurs du Gang !</p>"
    },
    "Gang Colors Top": {
      "name": "Haut avec Couleurs du gang",
      "description": "<p>Montrez votre allégeance avec les couleurs du Gang !</p>"
    },
    "Generic Chic Bottoms": {
      "name": "Bas Générique",
      "description": "<p>Le type de vêtements que vous trouvez dans les méga-plexes du futur sombre. Parfait si vous ne voulez pas vous démarquer de la foule.</p>"
    },
    "Generic Chic Contact Lenses": {
      "name": "Lentilles de contact Générique",
      "description": "<p>Le type de vêtements que vous trouvez dans les méga-plexes du futur sombre. Parfait si vous ne voulez pas vous démarquer de la foule.</p>"
    },
    "Generic Chic Footwear": {
      "name": "Chaussures Générique",
      "description": "<p>Le type de vêtements que vous trouvez dans les méga-plexes du futur sombre. Parfait si vous ne voulez pas vous démarquer de la foule.</p>"
    },
    "Generic Chic Glasses": {
      "name": "Lunettes Générique",
      "description": "<p>Le type de vêtements que vous trouvez dans les méga-plexes du futur sombre. Parfait si vous ne voulez pas vous démarquer de la foule.</p>"
    },
    "Generic Chic Hat": {
      "name": "Couvre-chef Générique",
      "description": "<p>Le type de vêtements que vous trouvez dans les méga-plexes du futur sombre. Parfait si vous ne voulez pas vous démarquer de la foule.</p>"
    },
    "Generic Chic Jacket": {
      "name": "Veste Générique",
      "description": "<p>Le type de vêtements que vous trouvez dans les méga-plexes du futur sombre. Parfait si vous ne voulez pas vous démarquer de la foule.</p>"
    },
    "Generic Chic Jewelry": {
      "name": "Bijoux Générique",
      "description": "<p>Le type de vêtements que vous trouvez dans les méga-plexes du futur sombre. Parfait si vous ne voulez pas vous démarquer de la foule.</p>"
    },
    "Generic Chic Mirrorshades": {
      "name": "Verres miroirs Générique",
      "description": "<p>Le type de vêtements que vous trouvez dans les méga-plexes du futur sombre. Parfait si vous ne voulez pas vous démarquer de la foule.</p>"
    },
    "Generic Chic Top": {
      "name": "Haut Générique",
      "description": "<p>Le type de vêtements que vous trouvez dans les méga-plexes du futur sombre. Parfait si vous ne voulez pas vous démarquer de la foule.</p>"
    },
    "High Fashion Bottoms": {
      "name": "Bas de Haute couture",
      "description": "<p>Fabriqué à partir des matériaux de qualité les plus coûteux et par les créateurs les plus exclusifs, c'est ce que vous portez lorsque vous avez réussi. Le genre de mode que vous voyez porté par des top-models dans des vidéos sur le Citinet.</p>"
    },
    "High Fashion Contact Lenses": {
      "name": "Lentilles de contact de Haute couture",
      "description": "<p>Fabriqué à partir des matériaux de qualité les plus coûteux et par les créateurs les plus exclusifs, c'est ce que vous portez lorsque vous avez réussi. Le genre de mode que vous voyez porté par des top-models dans des vidéos sur le Citinet.</p>"
    },
    "High Fashion Footwear": {
      "name": "Chaussures de Haute couture",
      "description": "<p>Fabriqué à partir des matériaux de qualité les plus coûteux et par les créateurs les plus exclusifs, c'est ce que vous portez lorsque vous avez réussi. Le genre de mode que vous voyez porté par des top-models dans des vidéos sur le Citinet.</p>"
    },
    "High Fashion Glasses": {
      "name": "Lunettes de Haute couture",
      "description": "<p>Fabriqué à partir des matériaux de qualité les plus coûteux et par les créateurs les plus exclusifs, c'est ce que vous portez lorsque vous avez réussi. Le genre de mode que vous voyez porté par des top-models dans des vidéos sur le Citinet.</p>"
    },
    "High Fashion Hat": {
      "name": "Couvre-chef de Haute couture",
      "description": "<p>Fabriqué à partir des matériaux de qualité les plus coûteux et par les créateurs les plus exclusifs, c'est ce que vous portez lorsque vous avez réussi. Le genre de mode que vous voyez porté par des top-models dans des vidéos sur le Citinet.</p>"
    },
    "High Fashion Jacket": {
      "name": "Veste de Haute couture",
      "description": "<p>Fabriqué à partir des matériaux de qualité les plus coûteux et par les créateurs les plus exclusifs, c'est ce que vous portez lorsque vous avez réussi. Le genre de mode que vous voyez porté par des top-models dans des vidéos sur le Citinet.</p>"
    },
    "High Fashion Jewelry": {
      "name": "Bijoux de Haute couture",
      "description": "<p>Fabriqué à partir des matériaux de qualité les plus coûteux et par les créateurs les plus exclusifs, c'est ce que vous portez lorsque vous avez réussi. Le genre de mode que vous voyez porté par des top-models dans des vidéos sur le Citinet.</p>"
    },
    "High Fashion Mirrorshades": {
      "name": "Verres miroirs de Haute couture",
      "description": "<p>Fabriqué à partir des matériaux de qualité les plus coûteux et par les créateurs les plus exclusifs, c'est ce que vous portez lorsque vous avez réussi. Le genre de mode que vous voyez porté par des top-models dans des vidéos sur le Citinet.</p>"
    },
    "High Fashion Top": {
      "name": "Haut de Haute couture",
      "description": "<p>Fabriqué à partir des matériaux de qualité les plus coûteux et par les créateurs les plus exclusifs, c'est ce que vous portez lorsque vous avez réussi. Le genre de mode que vous voyez porté par des top-models dans des vidéos sur le Citinet.</p>"
    },
    "Leisurewear Bottoms": {
      "name": "Bas Décontracté",
      "description": "<p>Vos vêtements sportswear classiques. Parfait pour faire du jogging ou pour se détendre à la maison.</p>"
    },
    "Leisurewear Contact Lenses": {
      "name": "Lentilles de contact Décontracté",
      "description": "<p>Vos vêtements sportswear classiques. Parfait pour faire du jogging ou pour se détendre à la maison.</p>"
    },
    "Leisurewear Footwear": {
      "name": "Chaussures Décontracté",
      "description": "<p>Vos vêtements sportswear classiques. Parfait pour faire du jogging ou pour se détendre à la maison.</p>"
    },
    "Leisurewear Glasses": {
      "name": "Lunettes Décontracté",
      "description": "<p>Vos vêtements sportswear classiques. Parfait pour faire du jogging ou pour se détendre à la maison.</p>"
    },
    "Leisurewear Hat": {
      "name": "Couvre-chef Décontracté",
      "description": "<p>Vos vêtements sportswear classiques. Parfait pour faire du jogging ou pour se détendre à la maison.</p>"
    },
    "Leisurewear Jacket": {
      "name": "Veste Décontracté",
      "description": "<p>Vos vêtements sportswear classiques. Parfait pour faire du jogging ou pour se détendre à la maison.</p>"
    },
    "Leisurewear Jewelry": {
      "name": "Bijoux Décontracté",
      "description": "<p>Vos vêtements sportswear classiques. Parfait pour faire du jogging ou pour se détendre à la maison.</p>"
    },
    "Leisurewear Mirrorshades": {
      "name": "Verres miroirs Décontracté",
      "description": "<p>Vos vêtements sportswear classiques. Parfait pour faire du jogging ou pour se détendre à la maison.</p>"
    },
    "Leisurewear Top": {
      "name": "Haut Décontracté",
      "description": "<p>Vos vêtements sportswear classiques. Parfait pour faire du jogging ou pour se détendre à la maison.</p>"
    },
    "Nomad Leathers Bottoms": {
      "name": "Bas d'Âme nomade",
      "description": "<p>Si vous voulez ressembler à un cow-boy chromé, c'est ce qu'il vous faut.</p>"
    },
    "Nomad Leathers Contact Lenses": {
      "name": "Lentilles de contact d'Âme nomade",
      "description": "<p>Si vous voulez ressembler à un cow-boy chromé, c'est ce qu'il vous faut.</p>"
    },
    "Nomad Leathers Footwear": {
      "name": "Chaussures d'Âme nomade",
      "description": "<p>Si vous voulez ressembler à un cow-boy chromé, c'est ce qu'il vous faut.</p>"
    },
    "Nomad Leathers Glasses": {
      "name": "Lunettes d'Âme nomade",
      "description": "<p>Si vous voulez ressembler à un cow-boy chromé, c'est ce qu'il vous faut.</p>"
    },
    "Nomad Leathers Hat": {
      "name": "Couvre-chef d'Âme nomade",
      "description": "<p>Si vous voulez ressembler à un cow-boy chromé, c'est ce qu'il vous faut.</p>"
    },
    "Nomad Leathers Jacket": {
      "name": "Veste d'Âme nomade",
      "description": "<p>Si vous voulez ressembler à un cow-boy chromé, c'est ce qu'il vous faut.</p>"
    },
    "Nomad Leathers Jewelry": {
      "name": "Bijoux d'Âme nomade",
      "description": "<p>Si vous voulez ressembler à un cow-boy chromé, c'est ce qu'il vous faut.</p>"
    },
    "Nomad Leathers Mirrorshades": {
      "name": "Verres miroirs d'Âme nomade",
      "description": "<p>Si vous voulez ressembler à un cow-boy chromé, c'est ce qu'il vous faut.</p>"
    },
    "Nomad Leathers Top": {
      "name": "Haut d'Âme nomade",
      "description": "<p>Si vous voulez ressembler à un cow-boy chromé, c'est ce qu'il vous faut.</p>"
    },
    "Urban Flash Bottoms": {
      "name": "Bas Urbain flash",
      "description": "<p>Les vêtements les plus technologiques et les plus flashy que vous pouvez trouver à l'Ère du rouge.</p>"
    },
    "Urban Flash Contact Lenses": {
      "name": "Lentilles de contact Urbain flash",
      "description": "<p>Les vêtements les plus technologiques et les plus flashy que vous pouvez trouver à l'Ère du rouge.</p>"
    },
    "Urban Flash Footwear": {
      "name": "Chaussures Urbain flash",
      "description": "<p>Les vêtements les plus technologiques et les plus flashy que vous pouvez trouver à l'Ère du rouge.</p>"
    },
    "Urban Flash Glasses": {
      "name": "Lunettes Urbain flash",
      "description": "<p>Les vêtements les plus technologiques et les plus flashy que vous pouvez trouver à l'Ère du rouge.</p>"
    },
    "Urban Flash Hat": {
      "name": "Couvre-chef Urbain flash",
      "description": "<p>Les vêtements les plus technologiques et les plus flashy que vous pouvez trouver à l'Ère du rouge.</p>"
    },
    "Urban Flash Jacket": {
      "name": "Veste Urbain flash",
      "description": "<p>Les vêtements les plus technologiques et les plus flashy que vous pouvez trouver à l'Ère du rouge.</p>"
    },
    "Urban Flash Jewelry": {
      "name": "Bijoux Urbain flash",
      "description": "<p>Les vêtements les plus technologiques et les plus flashy que vous pouvez trouver à l'Ère du rouge.</p>"
    },
    "Urban Flash Mirrorshades": {
      "name": "Verres miroirs Urbain flash",
      "description": "<p>Les vêtements les plus technologiques et les plus flashy que vous pouvez trouver à l'Ère du rouge.</p>"
    },
    "Urban Flash Top": {
      "name": "Haut Urbain flash",
      "description": "<p>Les vêtements les plus technologiques et les plus flashy que vous pouvez trouver à l'Ère du rouge.</p>"
    }
  }
}