{
  "label": "Les 12 Jours de CyberNoël",
  "entries": {
    "MagnaSlot BatteryBrick": {
      "name": "Batterie MagnaSlot",
      "description": "<p>Batterie spécifique au cyberbras Radline Blitzkrieg Lanceur d'Arc. Peut être rechargé en 1 heure.</p>"
    },
    "FleshWeave (Armor)": {
      "name": "Chair tissée (Armure)",
      "description": "<p>Armure cyberimplant.</p>"
    },
    "Blitzkrieg Arc-Thrower Cyberarm": {
      "name": "Cyberbras Blitzkrieg Lanceur d'Arc",
      "description": "<p>Un &ldquo;bras&rdquo; en nom uniquement, car le Lanceur d'Arc est un canon électrique massif. 0 emplacement d'option.</p>\n<p>Le Lanceur d'Arc est un fusil à pompe de mauvaise qualité à une main qui utilise la compétence Armes lourdes. Tire des &ldquo;chevrotine de fusil à pompe&rdquo; explosion d'électricité avec 4d6 dégâts. Les blessures critiques ne sont pas possibles. L'armure n'est pas perforée. Si la cible tombe en dessous de 1PV avec l'explosion, la cible reste à 1PV et est Inconsciente.</p>\n<p>Le tir du Lanceur d'Arc consomme une charge de la batterie Radline MagnaSlot (100eb). La batterie a une capacité de 32 tirs et peut être rechargée en 1 heure. Utilisez une action pour changer de batterie, même si l'utilisateur n'a pas de mains libres disponibles. Le Lanceur d'Arc n'a pas de main.</p>"
    },
    "Bug Eye": {
      "name": "Oeil Insectoïde",
      "description": "<p>Grand cyberoptique insectoïde livré avec des emplacements d'options. Cyborgimplant.</p>"
    },
    "ChainRipp": {
      "name": "ScieRipp",
      "description": "<p>Une tronçonneuse cyberbras rétractable avec pot d'échappement intégré. Peut être déployée et rétractée sans action. L'utilisateur ne peut pas utiliser la main sur le cyberbras de la ScieRipp lorsque la lame est sortie.</p>\n<p>Une fois déployée, la ScieRipp peut être mise ne marche avec une action et est considéré comme une arme de mêlée très lourde à une main d'excellente qualité. ScieRipp reste allumée jusqu'à ce qu'une action serve à la désactiver.</p>\n<p>Dans l'état déployé mais non allumé, la ScieRipp est une arme de mêlée très lourde à une main.</p>"
    },
    "DeathTrance": {
      "name": "Transe de Mort",
      "description": "<p>Activé avec une action pour empêcher les signes de vie tels que la fréquence cardiaque et la respiration. Pour un observateur lambda, l'utilisateur semble être mort. -4 à toutes les actions dans cet état léthargique. Peut être désactivé avec une action. L'utilisateur peut avoir la peau bleuâtre ou pâle à force de multiples usages.</p>\n<p>SD17 Techniques médicales ou SD21 (Criminologie, Déduction, Perception) pour découvrir que l'utilisateur n'est pas réellement mort.</p>"
    },
    "FleshWeave": {
      "name": "Chair Tissée",
      "description": "<p>Cyberimplant externe*. 7 PA pour la tête et le corps.<br>Armure de peau tissée avec des fonctionnalités avancées d'auto-guérison. Des milliards de nanobots réparent tous les dégâts de l'armure Chair Tissée (corps et tête) après 10 minutes de repos. L'armure ne se cumule pas.</p>\n<p><em>* L'armure cyberimplant ne fonctionne pas comme armure dans le système, veuillez ajouter l'élément \"Sycust Chair Tissée (Armure)\" au personnage/sbire pour tracer</em></p>"
    },
    "Gang Jazzler": {
      "name": "Gang Jazzler",
      "description": "<p>Utilisez une action d'Etranglement pour toucher une cible aggripée avec une aiguille électrifiée. La cible ne subit pas de dégâts, mais doit effectuer un test de Résistance à la torture/aux drogues SD13. En cas d'échec, la cible tombe inconsciente pendant 1 minute.</p>\n<p>Alimenté par une batterie rechargeable (50eb). La batterie doit être rechargée pendant 1 heure après chaque utilisation. Aucun jet n'est nécessaire pour dissimuler le Gang Jazzler et sa batterie. Peut être installé dans un bras de viande s'il est le seul élément de cyber dans ce bras.</p>"
    },
    "MicroWaldo": {
      "name": "MicroWaldo",
      "description": "<p>Une collection d'instruments et de sondes montés sur bracelet pour faciliter la chirurgie.<br>+1 aux tests de chirurgie de Medtech.&nbsp;</p>\n<p>Prend 1 emplacement d'option cyberbras et 1 emplacement d'option de lien neural.</p>"
    },
    "MonoVision": {
      "name": "MonoVision",
      "description": "<p dir=\"ltr\">Visière cyberoptique à simple optique qui remplace deux yeux de viande. Trop grand pour une monture multioptique.&nbsp;</p>\n<p dir=\"ltr\">Les options cyberoptiques sont toujours &ldquo;appariées&rdquo; même s'il n'y en a qu'un seul de chaque type. Les pénalités infligées avec la blessure critiques Oeil perdu sont doublées si la cible ne compte que sur la Monovision pour la vue.</p>\n<p>Cyborgimplant.</p>"
    },
    "OptiShield": {
      "name": "Optishield",
      "description": "<p>Écran miroir rétractable implanté. Lorsqu'il est activé avec une action, l'utilisateur est immunisé contre les effets négatifs de la lumière forte, tels que par des grenades étourdissantes.</p>"
    },
    "Poser Chip": {
      "name": "Puce Poseur",
      "description": "<p>Puce de données. Permet à l'utilisateur d'imiter facilement les schémas de parole et les manières d'une personnalité préprogrammée. Cyberimplant standard pour Poser Gangs.</p>\n<ul>\n<li>+4 aux jets Jeu d'acteur lors de l'imitation de cette personnalité spécifique.</li>\n<li>+ 5 au jet Jeu d'acteur avec un jeu de rôle convaincant.</li>\n</ul>\n<p>Les Puces Poseurs programmées avec d'innombrables heures de vidéo de célébrités coûtent 500eb. Une Puce Poseur personnalisée programmée avec plus de 10 heures de vidéo à un coût individuel de 1000eb.</p>"
    },
    "Romanova Cyberlegs": {
      "name": "Cyberjambes Romanova",
      "description": "<p>Des cyberjambes haut de gamme avec des Ergots intégrés dans chaque talon. Les lames ne peuvent pas être enlevées.</p>\n<p>Cyberjambes appariés, 1000eb pour les deux jambes. Chaque jambe a 3 emplacements pour options de cyberjambe ou cybermembre. Lancez une perte d'humanité une fois pour la paire de jambes. Chaque jambe peut subir des blessures critiques distinctes et doit être réparée individuellement.</p>"
    },
    "Watch-Man": {
      "name": "Watch-Man",
      "description": "<p dir=\"ltr\">Agent interne avec écran rétractable sur l'avant-bras de l'utilisateur. Nécessite un cyberbras.</p>"
    }
  }
}