{
  "label": "Droghe",
  "entries": {
    "Antibiotic": {
      "name": "Antibiotico",
      "description": "<p>Se un bersaglio ha iniziato il processo di guarigione naturale iniettandole l'Antibiotico, li farà guarire altri 2 Punti Ferita al giorno per una settimana. Questo effetto non si accumula.</p>"
    },
    "Black Lace": {
      "name": "Black Lace",
      "description": "<p><strong>Primary Effect</strong></p>\n<p>Dose lasts 24 hours.</p>\n<ul>\n<li>The user rolls 2d6 Humanity Loss which is returned if they pass the Secondary Effect save</li>\n<li>The user ignores Seriously Wounded wound states for the duration</li>\n</ul>\n<p><br><strong>Secondary Effect (DV17)</strong></p>\n<p>When the dose wears off, the user rolls WILL + Resist Torture/Drugs + 1d10 against Secondary DV.</p>\n<ul>\n<li>On Fail Humanity loss is not returned</li>\n<li>Unless experiencing the primary effect, REF -2</li>\n</ul>"
    },
    "Blue Glass": {
      "name": "Blue Glass",
      "description": "<p><strong>Primary Effect</strong></p>\n<p>Dose lasts 4 hours.</p>\n<ul>\n<li>The GM may occasionally tell the user that they are seeing swirls of colours. When this happens the user loses their action on a single turn</li>\n</ul>\n<p><strong>Secondary Effect (DV15)</strong></p>\n<ul>\n<li>The GM may occasionally tell the user that they are seeing swirls of colours. When this happens the user loses their action on a single turn</li>\n</ul>"
    },
    "Boost": {
      "name": "Boost",
      "description": "<p><strong>Primary Effect</strong></p>\n<p>Dose lasts 24 hours.</p>\n<ul>\n<li>The user has INT +2 for the duration</li>\n</ul>\n<p><strong>Secondary Effect (DV17)</strong></p>\n<ul>\n<li>INT -2</li>\n</ul>"
    },
    "Rapidetox": {
      "name": "Rapidetox",
      "description": "<p>Iniettando un paziente con Rapidetox eliminerà tutti gli effetti di qualsiasi droga, veleni o intossicanti attualmente in corso.</p>"
    },
    "Smash": {
      "name": "Smash",
      "description": "<p><strong>Primary Effect</strong></p>\n<p>Dose lasts 4 hours.</p>\n<ul>\n<li>The user feels happy and satisfied</li>\n<li>+2 to Dance / Contortionist / Conversation / Human Perception / Persuasion / Acting</li>\n</ul>\n<p><strong>Secondary Effect (DV15)</strong></p>\n<ul>\n<li>-2 to Dance / Contortionist / Conversation / Human Perception / Persuasion / Acting</li>\n<li>GM will tell your when you crave more Smash. Roleplay accordingly.</li>\n</ul>"
    },
    "Speedheal": {
      "name": "Speedheal",
      "description": "<p>Un paziente che non sia Morente recupera subito un numero di Punti Ferita pari alla somma di FIS+VOL. Si può\nricevere una sola dose al giorno.</p>"
    },
    "Stim": {
      "name": "Stim",
      "description": "<p>Per un’ora, il paziente ignora le penalità dello Soglia Ferito Gravemente. Si può riceve una sola dose al giorno.</p>"
    },
    "Surge": {
      "name": "Surge",
      "description": "<p>Il paziente può agire senza penalità per la mancanza di sonno per un giorno. Si può riceverne una sola dose\na settimana.</p>"
    },
    "Synthcoke": {
      "name": "Synthcoke",
      "description": "<p><strong>Primary Effect</strong></p>\n<p>Dose lasts 4 hours.</p>\n<ul>\n<li>+1 REF by 1 point for the duration</li>\n<li>The user feels paranoid occasionally</li>\n</ul>\n<p><strong>Secondary Effect (DV15)</strong></p>\n<ul>\n<li>-2 REF unless under ther Primary Effect</li>\n<li>GM will tell you when when you crave mor Synthcoke. Roleplay Acordingly</li>\n</ul>"
    }
  }
}