{
  "$schema": "http://json-schema.org/draft-06/schema#",
  "$ref": "#/definitions/CPRC-Weapon",
  "definitions": {
    "CPRC-Weapon": {
      "type": "object",
      "additionalProperties": false,
      "properties": {
        "_id": {
          "$ref": "./components/id.json"
        },
        "effects": {
          "$ref": "./components/effects/activeEffects.json"
        },
        "flags": {
          "$ref": "./components/flags.json"
        },
        "img": {
          "$ref": "./components/img.json"
        },
        "name": {
          "$ref": "./components/name.json"
        },
        "type": {
          "type": "string",
          "const": "weapon"
        },
        "system": {
          "$ref": "#/definitions/System"
        }
      },
      "required": [
        "_id",
        "effects",
        "img",
        "name",
        "system",
        "type"
      ]
    },
    "System": {
      "type": "object",
      "additionalProperties": false,
      "properties": {
        "ammoVariety": {
          "$ref": "./components/loadable/ammoVarietyArray.json"
        },
        "attackmod": {
          "$ref": "./components/attackable/attackMod.json"
        },
        "brand": {
          "$ref": "./components/physical/brand.json"
        },
        "concealable": {
          "$ref": "./components/physical/concealable.json"
        },
        "damage": {
          "$ref": "./components/attackable/damage.json"
        },
        "description": {
          "$ref": "./components/common/description.json"
        },
        "dvTable": {
          "$ref": "./components/attackable/dvTable.json"
        },
        "equipped": {
          "$ref": "./components/equippable/equipped.json"
        },
        "favorite": {
          "$ref": "./components/common/favorite.json"
        },
        "fireModes": {
          "$ref": "./components/attackable/fireModes.json"
        },
        "handsReq": {
          "$ref": "./components/attackable/handsReq.json"
        },
        "installedItems": {
          "$ref": "./components/container/installedItems.json"
        },
        "isRanged": {
          "$ref": "./components/attackable/isRanged.json"
        },
        "isUpgraded": {
          "$ref": "./components/upgradable/isUpgraded.json"
        },
        "magazine": {
          "$ref": "./components/attackable/magazine.json"
        },
        "price": {
          "$ref": "./components/valuable/price.json"
        },
        "revealed": {
          "$ref": "./components/effects/revealed.json"
        },
        "rof": {
          "$ref": "./components/attackable/rof.json"
        },
        "source": {
          "$ref": "./components/common/source.json"
        },
        "unarmedAutomaticCalculation": {
          "$ref": "./components/attackable/unarmedAutomaticCalculation.json"
        },
        "upgrades": {
          "$ref": "./components/upgradable/upgrades.json"
        },
        "usage": {
          "$ref": "./components/effects/usage.json"
        },
        "usesType": {
          "$ref": "./components/loadable/usesType.json"
        },
        "weaponSkill": {
          "$ref": "./components/attackable/weaponSkill.json"
        },
        "weaponType": {
          "$ref": "./components/attackable/weaponType.json"
        }
      },
      "required": [
        "ammoVariety",
        "attackmod",
        "brand",
        "concealable",
        "damage",
        "description",
        "dvTable",
        "equipped",
        "favorite",
        "fireModes",
        "handsReq",
        "installedItems",
        "isRanged",
        "isUpgraded",
        "magazine",
        "price",
        "revealed",
        "rof",
        "source",
        "unarmedAutomaticCalculation",
        "upgrades",
        "usage",
        "usesType",
        "weaponSkill",
        "weaponType"
      ]
    }
  }
}
